<?xml version="1.0" encoding="utf-8"?>
<!-- Generator: Adobe Illustrator 21.1.0, SVG Export Plug-In . SVG Version: 6.00 Build 0)  -->
<svg version="1.1" id="svg_map" xmlns:inkscape="http://www.inkscape.org/namespaces/inkscape"
	 xmlns="http://www.w3.org/2000/svg" xmlns:xlink="http://www.w3.org/1999/xlink" x="0px" y="0px" viewBox="0 0 1175 631"
	 style="enable-background:new 0 0 1175 631;" xml:space="preserve">
<style type="text/css">
	.st0{display:none;fill:#FEE0D2;stroke:#000000;stroke-width:0.7652;stroke-linecap:round;stroke-linejoin:round;}
	.st1{display:none;fill:#FC9272;stroke:#000000;stroke-width:0.7652;stroke-linecap:round;stroke-linejoin:round;}
	.st2{display:none;fill:#DE2D26;stroke:#000000;stroke-width:0.7652;stroke-linecap:round;stroke-linejoin:round;}
	.st3{fill:#FFFFCC;fill-opacity:0.9;stroke:#000000;stroke-width:0.4081;stroke-linecap:round;stroke-linejoin:round;}
	.st4{fill:#FC7E5E;stroke:#000000;stroke-width:0.7652;stroke-linecap:round;stroke-linejoin:round;}
	.st5{fill:#FEE0D2;stroke:#000000;stroke-width:0.7652;stroke-linecap:round;stroke-linejoin:round;}
	.st6{fill:#EF3B2C;stroke:#000000;stroke-width:0.7652;stroke-linecap:round;stroke-linejoin:round;}
	.st7{fill:#B81419;stroke:#000000;stroke-width:0.7652;stroke-linecap:round;stroke-linejoin:round;}
	.st8{fill:#FFF0E9;stroke:#000000;stroke-width:0.7652;stroke-linecap:round;stroke-linejoin:round;}
	.st9{fill:#FFF5F0;stroke:#000000;stroke-width:0.7652;stroke-linecap:round;stroke-linejoin:round;}
	.st10{fill:#FFE6DA;stroke:#000000;stroke-width:0.7652;stroke-linecap:round;stroke-linejoin:round;}
	.st11{fill:#DD2A25;stroke:#000000;stroke-width:0.7652;stroke-linecap:round;stroke-linejoin:round;}
	.st12{fill:#FCBBA1;stroke:#000000;stroke-width:0.7652;stroke-linecap:round;stroke-linejoin:round;}
	.st13{fill:#FCA78A;stroke:#000000;stroke-width:0.7652;stroke-linecap:round;stroke-linejoin:round;}
	.st14{fill:#67000D;stroke:#000000;stroke-width:0.7652;stroke-linecap:round;stroke-linejoin:round;}
	.st15{fill:#FFEBE1;stroke:#000000;stroke-width:0.7652;stroke-linecap:round;stroke-linejoin:round;}
	.st16{fill:#FDCEBA;stroke:#000000;stroke-width:0.7652;stroke-linecap:round;stroke-linejoin:round;}
	.st17{fill:#FB6A4A;stroke:#000000;stroke-width:0.7652;stroke-linecap:round;stroke-linejoin:round;}
	.st18{fill:#FC9272;stroke:#000000;stroke-width:0.7652;stroke-linecap:round;stroke-linejoin:round;}
	.st19{fill:#F5533B;stroke:#000000;stroke-width:0.7652;stroke-linecap:round;stroke-linejoin:round;}
	.st20{fill:#860811;stroke:#000000;stroke-width:0.7652;stroke-linecap:round;stroke-linejoin:round;}
	.st21{fill:#CB181D;stroke:#000000;stroke-width:0.7652;stroke-linecap:round;stroke-linejoin:round;}
	.st22{fill:#A50F15;stroke:#000000;stroke-width:0.7652;stroke-linecap:round;stroke-linejoin:round;}
	.st23{fill:#008000;fill-opacity:0;}
	.st24{font-family:'Arial-BoldMT';}
	.st25{font-size:12px;}
	.st26{font-family:'Arial-ItalicMT';}
	.st27{fill:#67000D;stroke:#67000D;}
	.st28{font-family:'ArialMT';}
	.st29{font-size:10px;}
	.st30{fill:#860811;stroke:#860811;}
	.st31{fill:#A50F15;stroke:#A50F15;}
	.st32{fill:#B81419;stroke:#B81419;}
	.st33{fill:#CB181D;stroke:#CB181D;}
	.st34{fill:#DD2A25;stroke:#DD2A25;}
	.st35{fill:#EF3B2C;stroke:#EF3B2C;}
	.st36{fill:#F5533B;stroke:#F5533B;}
	.st37{fill:#FB6A4A;stroke:#FB6A4A;}
	.st38{fill:#FC7E5E;stroke:#FC7E5E;}
	.st39{fill:#FC9272;stroke:#FC9272;}
	.st40{fill:#FCA78A;stroke:#FCA78A;}
	.st41{fill:#FCBBA1;stroke:#FCBBA1;}
	.st42{fill:#FDCEBA;stroke:#FDCEBA;}
	.st43{fill:#FEE0D2;stroke:#FEE0D2;}
	.st44{fill:#FFE6DA;stroke:#FFE6DA;}
	.st45{fill:#FFEBE1;stroke:#FFEBE1;}
	.st46{fill:#FFF0E9;stroke:#FFF0E9;}
	.st47{fill:#FFF5F0;stroke:#FFF5F0;}
	.st48{display:none;fill:#008000;fill-opacity:0;}
	.st49{display:none;enable-background:new    ;}
	.st50{display:none;fill:#DE2D26;stroke:#DE2D26;}
	.st51{display:none;fill:#FC9272;stroke:#FC9272;}
	.st52{display:none;fill:#FEE0D2;stroke:#FEE0D2;}
	.st53{font-family:'ARJULIAN';}
</style>
<g id="Choro_Pop_par_Dept_ile-de-france" transform="translate(-9932.5302734375, 288723.1875) scale(0.9801000356674194,0.9801000356674194)" inkscape:groupmode="layer" inkscape:label="Choro_Pop_par_Dept_ile-de-france">
	<path id="feature_0" class="st0" d="M11089.1-294204.1l-1.5,15.3l-10,55l13.4,14.9l29.3-47l20.6,6.7l93.1-18.9l89.4,33.5l-6.1,75
		l-20.2,46.5l-112.7-0.7l-31.6-28.6l-45.5-4.3l-76.9-30.2l-60.5,20.8l-118.4,54.5l-35.7,2.5l-16.1-13.2l-41,14.4l-55.2-7.3
		l-81.8-30.9l-59-16.6l-54.9-18.9l-39.4-17.4l-40.8,14.3l-20.1-31.2l-22.1,1.6l-42.6-17.1l-25.8-55.4l-109.8-42.1l6.3-34.5
		l27.2-56.6l63.6-43.3l44.1,12.3l21.2-34.2l91.7,9.4l20.3-41.3l88.1-49.8l73.5-36.9l46.3-4.1l100.4-2.1l64.1-0.5l20.3-0.3l87.9,2.9
		l32.7,29.1l10.3,39.7l8.1,33.2l47.8,30.9l12.2,31.3l10.5,105L11089.1-294204.1z"/>
	<path id="feature_1" class="st0" d="M11059.6-291106.3l-33.7-29.6l-14.6-59.3l41.3,16.7l85.8-24.3l63.8,15.3l-16.9-76.1l49.1-56.9
		l-52.4-28.2l51-37l44.4,6.8l-4.1-38.4l149.5-51.3l-40.2-46.5l55.7-37.8l94.2,11.3l69.8-53.6l116.5,15.4l-138.6-154.1l-56.6-12.8
		l-4-106.8l-1.9-30.8l-28.4-23l7.7-10.5l28.8-12.3l-17.5-135.4l36.1-24.6l7.5-40.8l7.1-82.8l-21.8-0.6l-10.6-36.1l-42.6-8.6
		l52.8-148.8l-46.6-1.7l84.4-112.1l7.6-37.8l54.3-30.3l-45.1,2.6l-16.7-58.8l105.6-79.9l4.1-69.8l-75.4-36.6l-41-86.6l17.9-12.1
		l88.3-11.3l7.5-59.8l25-33l-65.8-44.7l62-85.7l43.6-5.6l38.1,20.7l43-40.4l43.1-5.3l-17.8-72.2l-40.2-14.9l27.2-41l-15.4-11.6
		l-25.9-36.4l-3.2-10.3l55.4-82.1l64.9-51.7l-32.6-71.9l53.7-39.1l-9.9-57.5l79.3-3.2l-39.3-71.4l-70.6,5.7l-18.1-13.4l52.3-109.8
		l-33.7-23.4l22.2-51l-19.5-8l15.7-40l-45-117l-58.4-112l39.7-16.5l21.5-51.5l-88.9-5.5l10.8-74.4l-51.4-39.2l32.1-28.8l89.2-28.8
		l-2.9-38.8l27-31.4l4.3-3.3l-15.4-13.3l14.1-88.1l46.8-25.3l-1.3-34.9l-29.9-19.3l-19.2-62.8l-119-151.6l-2.5-20.1l45.7-11.2
		l18.5-37l-19.8-78.2l-19.9-7.3l-27-63.6l-58.2,15.1l-11.1-16.4l-56.9-10.9l-15.6-54.6l44.7,7.1l83.2-29.2l28.4-70.2l46.7-40.4
		l68-3.7l-101.9-70.9l81.5-119.3l72.6-52l17.2-37.4l41.4,2.8l62.8-81.3l34.5,50.7l47.1-3.1l126.4,84.9l64.2,53.6l-4.3,34.8l-5,17.9
		l60.1,16.5l96.4-92l50.3,117l118.2-14.9l111.1-72.8l-78.2-45.8l91.1,2.3l-19.8-33.7l35.4-8.8l79.8-43.3l76.2,72.4l43.9,12.6
		l44.4-11l52.2,86.9l72.6-7.5l82.7-42.3l22.3,8.6l29.4-48.6l104.4,41.3l44.3-9.8l18.6,11.7l21.4-5l14.2-54l41.5,12.4l56.8-27.5
		l18.9,9.8l15.7,82.7l62.2,14.4l18-69.2l53.2-26.5l40.5-12l81.6,23.3l17.6-10.5l145.4,19.8l-43.7-61.7l-2.4-36l70-91.4l34.4,28.2
		l161.8,32.6l31.1-10.2l11.1,11.3l68.4,2.9l54,35.2l68.5,4.7l-42,82.8l13.6,29.8l42.5,20.5l64.6,86.2l-3.4,35.2l45.4,36.1l0,19
		l-43.5,14l-18.9,75.9l-60.1,29.9l-1.8,36.8l39.9,43.6l126.3,39.3l40.2,36.9l8.2,33.3l64.4,19.5l7.3,18.3l19.8-6.4l10.3,68.3
		l84.2,14.8l27.1,71.3l36.4,76.8l-12.1,24.2l23.3,33.5l19.9,9.4l65.3-15.8l95.5-50.4l35.4,78.2l5.2,83.1l79.7,77.6l143.5-67.9
		l25.5-54.1l37.2,117.2l-21,79l49.5,45.4l7.6,81.4l20.8,11l86.9-24.2l-31.1,55.4l44.4,15.9l66.4-22.6l25.6,34.5l109.3,31.5
		l-30.3,76.5l76.6,27.9l36.7-70.7l68.7-8l29.5,98.2l-26.9,56.4l9.9,60.4l-28.5,17.5l-28.5-42.1l-21.4-7.8l-117.3,52.2l-67.3-7.1
		l-61.2-28.2l-47.3,44.4l6.6,19.3l62.9,26.5l90.5,5.5l9.3,78.2l-1.8,19.2l-62.2,23.1l-39.9-18.7l-45.5,2.2l-57,130.8l9.7,37.4
		l45.5,12.5l88.2-25.1l38.6,23.3l1.9,58.4l27.7,31.7l113.2-4.8l-2.1,57.8l2.4,34.7l0.9,101.8l50.1,44.3l-23.9,2.9l-6.9,59.5
		l-65.1,25.9l-62.9,60.6l16.5,32.8l-16.4,14.9l75.8,76.6l-34,97.4l117.7-16.9l69.8-55.2l118.6,18.2l70.2-15.6l-65.6,57.6l11.7,17.8
		l91.8,20.7l67.3,57.7l0.6,19.5l-215.7,67.1l-13.5,16l45.6,69.2l-105.8,12.7l-30.8,49l-74.2,43.4l-15.9,15l79.3,121.2l-2.1,49
		l-41.5,8.3l-100,66.7l-65.3,0.7l-102.8-28.8l-40.2,31.9l90.7,91.8l47.7,91l-0.7,38.7l-65-2.9l-76.7,27.9l-89.7,46.7l61.6,58
		l-1.7,39.2l41.7,47.9l-5.9,80.2l-33.8,27.7l-16.7,56.7l87.4,22.9l-31.3,34.4l72.5,0.1l1.5,37.7l-26.3,110l-67.1-5.1l-69.9-45.3
		l-44.9,1l-41.2,42.3l-9.5,94.8l-34.6,20.3l0.4-38.7l-22.4-1l-24.2,31.5l-45,0.4l-29.5,6.2l-62-22.1l-22.3-0.8l-5.1,18.3
		l-127.3-49.7l-6.9,18.9l-43.4-1l-96.2,77.6l-113.4-30.2l-54.9,15.5l-45.9,19.9l-49.6-30.4l-40.5,7.4l-18.8-37.7l-42.5-18.3
		l-19.8,33.2l-103.4,27.7l-23.4-31.1l-79.8,23.3l-35.4,24.8l-50.7,87.4l-17.7-12.3l-4.3-36.1l-45.6,2l-38.2-20l-63.8,18.3
		l-79.6-13.6l-53.5,110.5l15.1,71.9l-112.8,126.8l54.8,39.2l-33.8,25l45.5,64.3l-22.2,57.4l87.5,22.3l19.5,130l-68.4,5.6
		l-89.4,156.3l-30.5,74.4l-40.6,18.1l-37.8-15.7l-79.2,32.9l-2.5,54.1l-71.5,9.8l-94.2,80.4l8.4,90.6l-166.8,23.3l-133.6,17.4
		l-19.2,2.6l-73.9,79.5l-135.8,75.4l-85.3-10.6l-13.9-34.8l3.2-95.2l45.6-42.3l2.1-19.1l-55.4-23.2l-40,16l-42.8-12.1l-35.3,23.6
		l-45.2-4.7l-40.3,16.2l-84.5-28.9l83.3,84.6l4.8,36.7l-150.3,48.4l-72.4,73.9l-143.2-2.1l-36.2,26.5l-13,0.7l-116.8-108.1
		l-162.4,41.9l-121.8,0.2l-34.3-53.1l-152.3,1.8l-71.9,71.1l2.4,18.8l-206-22.8l-85.5,20.5l-14.1,13l-60.8-12.3l6.8-35.2l77.2-39.5
		l50-60.8l-1.5-35.5l51.8-58.3l106.9,47.4l39-49.3l-29-94.4l29.4-70.9l22.5-5.3l12.2-28.4l-26.9-91.7h-15.1l4.8-73.7l-37-12.1
		l-5.9-56.1l-101.4-2.6l-30.6-30.3l-4.2-39.3l-35.7-26.2l-79.3,28.5l-33.8-23.8l-20,7.5l-43.7-15l-41.9-47.6l-7.6-16.6l1-191
		L11059.6-291106.3z"/>
	<path id="feature_2" class="st1" d="M8840.9-291909.2l-9.9,56.6l-44.5,12l-25.9,33l-93.8,1.5l-21.6-3.8l-46.6,1l-38-23.2l-63.9-13
		l-37.8-66.6l-21.4-54l-110.6,6.5l-38.6-11.5l-7-36.3l-32.1-26.3l11.7-31.8l-44.9-42.7l13-37.9l-59-87.6l-3.1-81.7l49.1-157.9
		l-41.6,6.5l-61.4-56.3l-16.4-55.4l-61.3-23.4l-43,15.7l-136-29.4l4.5-19l-38.2-21.8l73.2-130l-14-35l-108.9-7.4l-10.6,16.8
		l-27.2-20.9l34.7-12.5l-40-9.5l-72.2,30.2l-41.4-46l-2.7-38.3l-33.9-24.5l9-34.3l-49.6-39.6l10.6-37.5l-93.9,5.7l-70.1-54.5
		l-22.5-20.4l15.4-93.9l23-54.7l-134-44.5l1.1-48.3l56.7-29.4l-31.9-8.3l9.4-12.6l114-131.4l23.9-4.1l11.1-24.3l10-52l-91.1-67.7
		l-93.4-15.9l-9.3-24.9l21.2-35.5l-49.1-68.2l10.1-138.5l49.3-31.9l1.1-17.5l-40.4-73.2l58.1-34.4l1.7-20.1l-38.1-23.8l-43-6.8
		l25.6-76.9l-50.2-37.7l-57.6-19.5l-3.2,17.6l-58.2-47.9l79.6-106.5l-116.4-94l26.5-24l-12.5-29l-5.3-16l-10.6-18.8l-70.3-18.7
		l-41.3,18l-26.9-31.8l15.5-36.3l-45-44.5l-1.3,0l42.9-73.3l-45.4,3.7l-27.4-74.9l105.7-73.8l-22.5-0.8l-25.8-30.8l-64.2,25.9
		l-71.6,0.6l-33.6,25.9l-42.7-82.2l42.5-13.2l42.6-84.5l-29.3-24.2l13.8-29.9l-24.2-22.4l-64.8-44.9l-7.5-58.5l-37.3-50.5l14-37.7
		l-18.4-12.6l64.6-57.3l69.2,56.2l46.3,11.5l76.6-43l42.9-109.7l-12-37.7l29,25.4l22.4,67.8l115.2-23.6l65.3,11.8l52.5-37.7
		l101-34.8l44.6-6l21.7,34.4l25.5,39.3l26.7-16.1l120.9-43.3l111.1,14.1l77.2,41.3l44.4,37.6l-15.9,51.1l137.1,68.5l39.2-31.8
		l16.5,10.1l71.3,2.7l0.6-40.1l36.5-48l52.1,32.2l85.5-0.5l22.5-2l23-47.1l-13.4-35l86.2-24.4l37.6-1.5l78.5,42.9l3.9,26.6
		l110.5,42.8l-63.6,141l36.7,20.9l14.9,56.1l-14.3,36.4l11.3-0.9l31.2-23.1l61.1-8.7l6.5-76.5l114.1-90.1l25.6,12.8l-7.2,24.7
		l117.1,116.1l35.6-20.4l42.9,4.3l9.9,16l46.1-8.2l66.1,22.9l47.5-10.1l60.2,64l12.7,10.8l73.8,60.5l12.8-16.4l91.9-6.7l81.9-37.2
		l33.7,38l59.9-75.9l105.7,32.8l60.7-55.2l26,57.5l-23.2,80.6l27.3,34.2l115.7,17.3l63.1,27.1l40.2,48.2l14.9,57l0,21.9l-22.4,37.9
		l150.3,20.8l1.6,53.2l-32.6,31.7l26.8,67.4l-24.6,27.9l7,60.2l-120.1,56.3l-22.5,19.1l-49.8,89l-35.8,57l15.9,37.8l-15,34.6
		l44,63.1l-45.1,6.2l-18.5,57.2l12.4,49.2l14.1,41.5l-3.2,15l48.7,35.5l70.9-7.2l43,83.1l-13.6,15.3l90.3-6.9l30.2,28.5l4.5,38.1
		l65.2,15.1l11.3,16.8l0,32.1l3.1,19.6l-19.6,10.7l-69.8,3.8l-32.1-25.4l-46.3-2.5l-13.8,14.8l22.8,52l-13,55.5l-65.7-19.7
		l-61.6,29.5l-47.9-0.9l-56.5,35.4l-0.1,20.3l-17.6,35.1l-79.4-24.8l-59.9,19.9l-19.2,11.6l46.8,68.7l-12.5,38.5l12.3,19.5
		l-59.6,81.2l3.4,38l-39.4-23.5l-32.6,73.8l-56.8-20.4l-14.8,11.9l-49.8,0.7l-45.1,0l-14.8,35.7l-22.5,2.8l-18.3,9.1l-21,87.5
		l-8.1,35.8l-63.5-11.4l-7.1,35.2l40.2,67.3l66.6,3.8l5.6,56.1l26.8,29.2l4.6,3.1l69.2,53.4l-12.1,54.4l-90.8,18.2l-8.7,39
		l12.9,54.6l-63,62.8l-18.9,120.5l-158.9,4.5l-15.2,14.6l-78.4-36.1l-113.7-7.6l-17,77l129.1,80l64.5,2.5l5.7,39.1l-44,9.7
		l-17.5-9.4l-50.3,25.6l-84.2,162.5l-4.7,84.2l-45.2,13.5l-29.3,31.9l-0.8,60.9L8840.9-291909.2z"/>
	<path id="feature_3" class="st0" d="M11059.6-291106.3l-16.8,32.1l-133,38.6l-10.5-15.3l-37.2,14.4l-17.5-9.5l-113.6-93.9
		l-9.7-37.6l-55.7,7.4l-21.8,8.5l-55.1,110.8l-39,12.1l-104.3-34.5l-64.9,80l-44.4,17.8l13.1-99.9l-46.9-5.6l37.2-79.8l-66.7,1.2
		l-79.3-40.5l-35.5-48.5l-110.6,123.6l-5.5,59.2l-49.1-7.3l-8.2,13.8l-65.9-10.8l-3.5,35.9l37.3,33.9l-1.2,24.6l-234.7,8.8
		l13.8-60.4l-45.7,2.4l-74.1,72.3l-160.4-5.7l-5.4,30.9l-37.7,23.8l-65.7-14.5l-90.6,19.4l-70-7.4l-68.9-9.6l-80.1-85.8l-12.6-34.3
		l79.4-32.8l-4.8-53.8l30.8-28.6l-54.6-68.5l22.2-99.1l53.6-40.7l-48.3-90.2l-47.5-7.3l47.4-109.9l-69.4-30.3l-62.8-11.8l-83.5,13.9
		l-3.5-45l-17.8-6.6l59.9-55.2l-8.6-77.9l25.5-32.6l-40.4-9.8l-16.7-64.8l-39.2-22.8l-26.1-33.5l0.8-60.9l29.3-31.9l45.2-13.5
		l4.7-84.2l84.2-162.5l50.3-25.6l17.5,9.4l44-9.7l-5.7-39.1l-64.5-2.5l-129.1-80l17-77l113.7,7.6l78.4,36.1l15.2-14.6l158.9-4.5
		l18.9-120.5l63-62.8l-12.9-54.6l8.7-39l90.8-18.2l12.1-54.4l-69.2-53.4l-4.6-3.1l-26.8-29.2l-5.6-56.1l-66.6-3.8l-40.2-67.3
		l7.1-35.2l63.5,11.4l8.1-35.8l21-87.5l18.3-9.1l22.5-2.8l14.8-35.7l45.1,0l49.8-0.7l14.8-11.9l56.8,20.4l32.6-73.8l39.4,23.5
		l-3.4-38l59.6-81.2l-12.3-19.5l12.5-38.5l-46.8-68.7l19.2-11.6l59.9-19.9l79.4,24.8l17.6-35.1l0.1-20.3l56.5-35.4l47.9,0.9
		l61.6-29.5l65.7,19.7l13-55.5l-22.8-52l13.8-14.8l46.3,2.5l32.1,25.4l69.8-3.8l19.6-10.7l-3.1-19.6l10.6,9.6l18.9,49.7l79.2,28
		l88.4,3.4l31.7,23.3l35.2,50.3l-41.7,43.1l18.2,36.2l23.2,2.4l85.3-30.9l8.6,58.1l44.2-6l32.1-106.8l14.3-10.9l31.8,14.8l44.9,41.6
		l62.2,13.8l72.5-43.3l3.9,106.6l1.7,45.1l72.9,0.4l111.8-34.8l15.4,48.2l95.4-36.8l22.9-7.8l12.8,27.8l38.6,34l-6.4-38l58.9-32.8
		l46.9-3.5l11-0.2l42-8.7l116.8-32.7l53.4,131l38.2,35.8l-12.3,8.5l19.6,29l60.9,7.8l22.2,55.2l103.9-17.6l40.2,14.9l17.8,72.2
		l-43.1,5.3l-43,40.4l-38.1-20.7l-43.6,5.6l-62,85.7l65.8,44.7l-25,33l-7.5,59.8l-88.3,11.3l-17.9,12.1l41,86.6l75.4,36.6l-4.1,69.8
		l-105.6,79.9l16.7,58.8l45.1-2.6l-54.3,30.3l-7.6,37.8l-84.4,112.1l46.6,1.7l-52.8,148.8l42.6,8.6l10.6,36.1l21.8,0.6l-7.1,82.8
		l-7.5,40.8l-36.1,24.6l17.5,135.4l-28.8,12.3l-7.7,10.5l28.4,23l1.9,30.8l4,106.8l56.6,12.8l138.6,154.1l-116.5-15.4l-69.8,53.6
		l-94.2-11.3l-55.7,37.8l40.2,46.5l-149.5,51.3l4.1,38.4l-44.4-6.8l-51,37l52.4,28.2l-49.1,56.9l16.9,76.1l-63.8-15.3l-85.8,24.3
		l-41.3-16.7l14.6,59.3L11059.6-291106.3z"/>
	<path id="feature_4" class="st2" d="M10656.4-293615.7l-32.1,106.8l-44.2,6l-8.6-58.1l-85.3,30.9l-23.2-2.4l-18.2-36.2l41.7-43.1
		l-35.2-50.3l-31.7-23.3l-88.4-3.4l-79.2-28l-18.9-49.7l-10.6-9.6l0-32.1l-11.3-16.8l-65.2-15.1l-4.5-38.1l-30.2-28.5l-90.3,6.9
		l13.6-15.3l-43-83.1l-70.9,7.2l-48.7-35.5l3.2-15l-14.1-41.5l-12.4-49.2l18.5-57.2l45.1-6.2l-44-63.1l15-34.6l-15.9-37.8l35.8-57
		l49.8-89l22.5-19.1l120.1-56.3l90.2-69.9l48.9-41.7l74.9-52.7l91.1-54.8l107-28.5l95.1,17.7l107,37.5l5.5,58.3l-34,51.6l-29.2,24
		l-9.9,16l-27.7,11.2l28.9,79.4l-73.5,36.9l-88.1,49.8l-20.3,41.3l-91.7-9.4l-21.2,34.2l-44.1-12.3l-63.6,43.3l-27.2,56.6l-6.3,34.5
		l109.8,42.1l25.8,55.4l42.6,17.1l22.1-1.6l20.1,31.2l40.8-14.3l39.4,17.4l54.9,18.9l59,16.6l81.8,30.9l-12.9,18.9l-45.7,22.3
		l22.9,49.3l-23.3,79.5l33.1,35.6l-26.3,65.6l-18.3,23.1l-27.1,71.3L10656.4-293615.7z"/>
	<path id="feature_5" class="st1" d="M11899.4-293959.3l-102.4-45l-7.5-18.5l0.4-35.9l-147.9-82.6l2.1-20.2l-99.3-55.2l-9,7.1
		l-45.1-41.4l-19.3,9.1l-15.5-24.8l-68.3-8.8l-124.6,35l-32.7,25l-45.3-9.6l-36.8,23l-46.8-2.7l-12.1,0.6l-5.1-34.8l-10.5-105
		l-12.2-31.3l-47.8-30.9l-8.1-33.2l-10.3-39.7l-32.7-29.1l-87.9-2.9l-20.3,0.3l-64.1,0.5l-100.4,2.1l-46.3,4.1l-28.9-79.4l27.7-11.2
		l9.9-16l29.2-24l34-51.6l-5.5-58.3l-107-37.5l-95.1-17.7l6-2.5l-18-44.5l46.1-43.1l67,24.2l32.1,22.3l37.6-7.4l23.1,25.1l46.9-69.3
		l44.9,9.3l57.7-50.3l45,12.9l29.9,4.3l115.3,88.7l52.5-9.5l131.6,11.4l39,0.2l16,4.2l31.9-49.2l112-57.3l22.4,3l20.5-15l6-19
		l44.2-14.4l95.9-137.1l68.3,0.4l24.2-31.9l58.2-15.1l27,63.6l19.9,7.3l19.8,78.2l-18.5,37l-45.7,11.2l2.5,20.1l119,151.6l19.2,62.8
		l29.9,19.3l1.3,34.9l-46.8,25.3l-14.1,88.1l15.4,13.3l-4.3,3.3l-27,31.4l2.9,38.8l-89.2,28.8l-32.1,28.8l51.4,39.2l-10.8,74.4
		l88.9,5.5l-21.5,51.5l-39.7,16.5l58.4,112l45,117L11899.4-293959.3z"/>
	<path id="feature_6" class="st2" d="M11812.5-293283.3l-103.9,17.6l-22.2-55.2l-60.9-7.8l-19.6-29l12.3-8.5l-38.2-35.8l-53.4-131
		l-116.8,32.7l-42,8.7l-11,0.2l-46.9,3.5l-58.9,32.8l6.4,38l-38.6-34l-12.8-27.8l-22.9,7.8l-95.4,36.8l-15.4-48.2l-111.8,34.8
		l-72.9-0.4l-1.7-45.1l-3.9-106.6l-72.5,43.3l-62.2-13.8l-44.9-41.6l-31.8-14.8l-14.3,10.9l-50.4-34.2l27.1-71.3l18.3-23.1
		l26.3-65.6l-33.1-35.6l23.3-79.5l-22.9-49.3l45.7-22.3l12.9-18.9l55.2,7.3l41-14.4l16.1,13.2l35.7-2.5l118.4-54.5l60.5-20.8
		l76.9,30.2l45.5,4.3l31.6,28.6l112.7,0.7l20.2-46.5l6.1-75l-89.4-33.5l-93.1,18.9l-20.6-6.7l-29.3,47l-13.4-14.9l10-55l1.5-15.3
		l12.1-0.6l46.8,2.7l36.8-23l45.3,9.6l32.7-25l124.6-35l68.3,8.8l15.5,24.8l19.3-9.1l45.1,41.4l9-7.1l99.3,55.2l-2.1,20.2
		l147.9,82.6l-0.4,35.9l7.5,18.5l102.4,45l19.5,8l-22.2,51l33.7,23.4l-52.3,109.8l18.1,13.4l70.6-5.7l39.3,71.4l-79.3,3.2l9.9,57.5
		l-53.7,39.1l32.6,71.9l-64.9,51.7l-55.4,82.1l3.2,10.3l25.9,36.4l15.4,11.6L11812.5-293283.3z"/>
	<path id="feature_7" class="st1" d="M10095.5-294552.1l-7-60.2l24.6-27.9l-26.8-67.4l32.6-31.7l-1.6-53.2l-150.3-20.8l22.4-37.9
		l0-21.9l-14.9-57l-40.2-48.2l-63.1-27.1l-115.7-17.3l-27.3-34.2l23.2-80.6l-26-57.5l-60.7,55.2l-105.7-32.8l-59.9,75.9l-33.7-38
		l-81.9,37.2l-91.9,6.7l-12.8,16.4l-73.8-60.5l-12.7-10.8l-60.2-64l-47.5,10.1l-66.1-22.9l-46.1,8.2l-9.9-16l-42.9-4.3l-35.6,20.4
		L8767-295330l7.2-24.7l-25.6-12.8l-114.1,90.1l-6.5,76.5l-61.1,8.7l-31.2,23.1l-11.3,0.9l14.3-36.4l-14.9-56.1l-36.7-20.9l63.6-141
		l-110.5-42.8l-3.9-26.6l-78.5-42.9l-37.6,1.5l-86.2,24.4l13.4,35l-23,47.1l-22.5,2l-85.5,0.5l-52.1-32.2l-36.5,48l-0.6,40.1
		l-71.3-2.7l-16.5-10.1l-39.2,31.8l-137.1-68.5l15.9-51.1l-44.4-37.6l-77.2-41.3l-111.1-14.1l-120.9,43.3l-26.7,16.1l-25.5-39.3
		l66.2-47.9l-17.9-11l2.8-52.8l31.2-47.6l95.7-116.4l35.9-31.3l-12.9-67.7l42.6-61.6l7.4-8.5l-13.2-16.7l35.5-72.7l-14-37.9
		l24.9-30.2l-6.3-52.7l24.3-56l-12.8-35.9l13.8-38.4l105.9-81.4l21.7-35.6l29.3-30.3l136.4,81.5l-21.3,8.8l-7.9,58.2l-83.9,33.6
		l0,19.8l42.7,13.7l5.1,37.9l59.8,10.7l17.7,72.4l61.8,28.8l92.3-59.7l2.5-0.8l76.5,28.9l19-28.5l88.5,54.3l65.2-6.5l24.9,31.8
		l-11.5,37.6l68.5-31.4l116.3-22.3l10.3-5.9l27.2,74.9l234.7-63.4l16.2,15.1l48.5-0.6l67-21.9l51.7-50.9l116.6,45.3l101.6-76.6
		l75.2-20.2l0.6-1.6l55.2-37.3l88.5-26.7l50.1-41.6l-0.4,19l43.5,10.3l26.7,89.9l91.9,12.1l65.7-16.1l43.9,44.5l15.9-14.1l44.8,9.5
		l47.9,36.8l-25.6,29.9l28.7,37.5l20,7.8l50.4-34.7l-13-34.3l49.6,19.4l90.6-9.5l59.7-25.4l61,77.5l-77.5,67.6l115.7,16.4l63.2-12.3
		l30.9-27.1l19.9,10.9l90.9-20.4l10.2-57.2l48.8-43.5l7.3-39.4l43-5.8l51.3,2.6l174.2,216.8l62.8-70.1l99.4,55.9l71.6-13.5
		l140.2,36.7l-8.9,25.2l-15.6,44.2l95.8-36l21.5,2.4l1.3,18.1l75,32.4l-2.5,18.1l102.2,33.3l8.3,34.8l-49.9,58.2l188.9,39.6
		l11.6-114.1l40-17.3l-2.2,18.8l43.6-10.5l13.4,13.1l24.1,121.6l78.9,30.3l30.1,69l34.5,5.8l-81.5,119.3l101.9,70.9l-68,3.7
		l-46.7,40.4l-28.4,70.2l-83.2,29.2l-44.7-7.1l15.6,54.6l56.9,10.9l11.1,16.4l-24.2,31.9l-68.3-0.4l-95.9,137.1l-44.2,14.4l-6,19
		l-20.5,15l-22.4-3l-112,57.3l-31.9,49.2l-16-4.2l-39-0.2l-131.6-11.4l-52.5,9.5l-115.3-88.7l-29.9-4.3l-45-12.9l-57.7,50.3
		l-44.9-9.3l-46.9,69.3l-23.1-25.1l-37.6,7.4l-32.1-22.3l-67-24.2l-46.1,43.1l18,44.5l-6,2.5l-107,28.5l-91.1,54.8l-74.9,52.7
		l-48.9,41.7L10095.5-294552.1z"/>
</g>
<g id="_75-" transform="translate(-9932.5302734375, 288723.1875) scale(0.9801000356674194,0.9801000356674194)" inkscape:groupmode="layer" inkscape:label="_75-">
	<path id="feature_0_1_" class="st3" d="M10847.1-294310.7l-44.8-10.8l-28.9-7.9l7.1-76.1l69.4-3.9l21.3,5.7l36.1,66.8
		L10847.1-294310.7z"/>
	<path id="feature_1_1_" class="st3" d="M10649.7-294285.2l-88.2-2.3l-30-60.8l30.3-29.3l115.8-27l-5.3,81.6L10649.7-294285.2z"/>
	<path id="feature_2_1_" class="st3" d="M10677.5-294404.6l12.1-103.5l100.4-2.1l64.1-0.5l20.3-0.3l4.9,35.3l-29.6,66.4l-69.4,3.9
		L10677.5-294404.6z"/>
	<path id="feature_3_1_" class="st3" d="M10970-294066.3l-111.9-112.5l-7.6-7.4l21.1-41.3l138.3,30.1l77.7,8.6l-10,55l13.4,14.9
		l29.3-47l20.6,6.7l93.1-18.9l89.4,33.5l-6.1,75l-20.2,46.5l-112.7-0.7l-31.6-28.6l-45.5-4.3l-76.9-30.2L10970-294066.3z"/>
	<path id="feature_4_1_" class="st3" d="M10850.6-294186.2l-91.2-45.8l24.9-46.6l84.5,36.4l2.9,14.7L10850.6-294186.2z"/>
	<path id="feature_5_1_" class="st3" d="M10787.7-294286.7l-105.8-38.2l91.5-4.5l28.9,7.9L10787.7-294286.7z"/>
	<path id="feature_6_1_" class="st3" d="M10631.7-294189.6l-42.7-5.5l-81.2-61l53.7-31.3l88.2,2.3l55.6,22.1l-15.9,37.9
		L10631.7-294189.6z"/>
	<path id="feature_7_1_" class="st3" d="M11009.9-294197.4l-138.3-30.1l-2.9-14.7l-21.6-68.5l60.1-26.3L11009.9-294197.4z"/>
	<path id="feature_8" class="st3" d="M10672.2-294323l5.3-81.6l102.9-0.8l-7.1,76.1l-91.5,4.5L10672.2-294323z"/>
	<path id="feature_9" class="st3" d="M10385.4-294114.5l-42.6-17.1l-25.8-55.4l-109.8-42.1l6.3-34.5l27.2-56.6l63.6-43.3l44.1,12.3
		l21.2-34.2l91.7,9.4l70,27.6l30,60.8l-53.7,31.3L10385.4-294114.5z"/>
	<path id="feature_10" class="st3" d="M10562.7-294063l-54.9-18.9l-39.4-17.4l-40.8,14.3l-20.1-31.2l-22.1,1.6l122.4-141.7l81.2,61
		l42.7,5.5l37,18.9L10562.7-294063z"/>
	<path id="feature_11" class="st3" d="M10868.7-294242.2l-84.5-36.4l3.4-8.1l14.6-34.8l44.8,10.8L10868.7-294242.2z"/>
	<path id="feature_12" class="st3" d="M10723.7-294148.3l-55-22.4l-37-18.9l57.8-35.6l15.9-37.9l54.1,31.1L10723.7-294148.3z"/>
	<path id="feature_13" class="st3" d="M10531.4-294348.3l-70-27.6l20.3-41.3l88.1-49.8l73.5-36.9l46.3-4.1l-12.1,103.5l-115.8,27
		L10531.4-294348.3z"/>
	<path id="feature_14" class="st3" d="M10858.1-294178.8l-65.5,47.3l-43.8-8.6l-25.1-8.2l35.7-83.7l91.2,45.8L10858.1-294178.8z"/>
	<path id="feature_15" class="st3" d="M10758.8-294008.1l-55.2-7.3l-81.8-30.9l-59-16.6l106-107.7l55,22.4l25.1,8.2
		L10758.8-294008.1z"/>
	<path id="feature_16" class="st3" d="M11087.6-294188.8l-77.7-8.6l-102.7-139.5l154.1-38.4l12.2,31.3l10.5,105l5.1,34.8
		L11087.6-294188.8z"/>
	<path id="feature_17" class="st3" d="M10907.2-294336.9l-36.1-66.8l-21.3-5.7l29.6-66.4l-4.9-35.3l87.9,2.9l32.7,29.1l10.3,39.7
		l8.1,33.2l47.8,30.9L10907.2-294336.9z"/>
	<path id="feature_18" class="st3" d="M10758.8-294008.1l-9.9-132l43.8,8.6l65.5-47.3l111.9,112.5l-118.4,54.5l-35.7,2.5l-16.1-13.2
		L10758.8-294008.1z"/>
	<path id="feature_19" class="st3" d="M10759.4-294232l-54.1-31.1l-55.6-22.1l22.5-37.9l9.7-1.8l105.8,38.2l-3.4,8.1L10759.4-294232
		z"/>
</g>
<g id="Choro_pop__75-" transform="translate(-9932.5302734375, 288723.1875) scale(0.9801000356674194,0.9801000356674194)" inkscape:groupmode="layer" inkscape:label="Choro_pop__75-">
	<path id="feature_0_2_" class="st4" d="M10847.1-294310.7l-44.8-10.8l-28.9-7.9l7.1-76.1l69.4-3.9l21.3,5.7l36.1,66.8
		L10847.1-294310.7z"/>
	<path id="feature_1_2_" class="st5" d="M10649.7-294285.2l-88.2-2.3l-30-60.8l30.3-29.3l115.8-27l-5.3,81.6L10649.7-294285.2z"/>
	<path id="feature_2_2_" class="st6" d="M10677.5-294404.6l12.1-103.5l100.4-2.1l64.1-0.5l20.3-0.3l4.9,35.3l-29.6,66.4l-69.4,3.9
		L10677.5-294404.6z"/>
	<path id="feature_3_2_" class="st7" d="M10970-294066.3l-111.9-112.5l-7.6-7.4l21.1-41.3l138.3,30.1l77.7,8.6l-10,55l13.4,14.9
		l29.3-47l20.6,6.7l93.1-18.9l89.4,33.5l-6.1,75l-20.2,46.5l-112.7-0.7l-31.6-28.6l-45.5-4.3l-76.9-30.2L10970-294066.3z"/>
	<path id="feature_4_2_" class="st8" d="M10850.6-294186.2l-91.2-45.8l24.9-46.6l84.5,36.4l2.9,14.7L10850.6-294186.2z"/>
	<path id="feature_5_2_" class="st9" d="M10787.7-294286.7l-105.8-38.2l91.5-4.5l28.9,7.9L10787.7-294286.7z"/>
	<path id="feature_6_2_" class="st10" d="M10631.7-294189.6l-42.7-5.5l-81.2-61l53.7-31.3l88.2,2.3l55.6,22.1l-15.9,37.9
		L10631.7-294189.6z"/>
	<path id="feature_7_2_" class="st11" d="M11009.9-294197.4l-138.3-30.1l-2.9-14.7l-21.6-68.5l60.1-26.3L11009.9-294197.4z"/>
	<path id="feature_8_1_" class="st12" d="M10672.2-294323l5.3-81.6l102.9-0.8l-7.1,76.1l-91.5,4.5L10672.2-294323z"/>
	<path id="feature_9_1_" class="st13" d="M10385.4-294114.5l-42.6-17.1l-25.8-55.4l-109.8-42.1l6.3-34.5l27.2-56.6l63.6-43.3
		l44.1,12.3l21.2-34.2l91.7,9.4l70,27.6l30,60.8l-53.7,31.3L10385.4-294114.5z"/>
	<path id="feature_10_1_" class="st14" d="M10562.7-294063l-54.9-18.9l-39.4-17.4l-40.8,14.3l-20.1-31.2l-22.1,1.6l122.4-141.7
		l81.2,61l42.7,5.5l37,18.9L10562.7-294063z"/>
	<path id="feature_11_1_" class="st15" d="M10868.7-294242.2l-84.5-36.4l3.4-8.1l14.6-34.8l44.8,10.8L10868.7-294242.2z"/>
	<path id="feature_12_1_" class="st16" d="M10723.7-294148.3l-55-22.4l-37-18.9l57.8-35.6l15.9-37.9l54.1,31.1L10723.7-294148.3z"/>
	<path id="feature_13_1_" class="st17" d="M10531.4-294348.3l-70-27.6l20.3-41.3l88.1-49.8l73.5-36.9l46.3-4.1l-12.1,103.5
		l-115.8,27L10531.4-294348.3z"/>
	<path id="feature_14_1_" class="st18" d="M10858.1-294178.8l-65.5,47.3l-43.8-8.6l-25.1-8.2l35.7-83.7l91.2,45.8L10858.1-294178.8z
		"/>
	<path id="feature_15_1_" class="st19" d="M10758.8-294008.1l-55.2-7.3l-81.8-30.9l-59-16.6l106-107.7l55,22.4l25.1,8.2
		L10758.8-294008.1z"/>
	<path id="feature_16_1_" class="st20" d="M11087.6-294188.8l-77.7-8.6l-102.7-139.5l154.1-38.4l12.2,31.3l10.5,105l5.1,34.8
		L11087.6-294188.8z"/>
	<path id="feature_17_1_" class="st21" d="M10907.2-294336.9l-36.1-66.8l-21.3-5.7l29.6-66.4l-4.9-35.3l87.9,2.9l32.7,29.1
		l10.3,39.7l8.1,33.2l47.8,30.9L10907.2-294336.9z"/>
	<path id="feature_18_1_" class="st22" d="M10758.8-294008.1l-9.9-132l43.8,8.6l65.5-47.3l111.9,112.5l-118.4,54.5l-35.7,2.5
		l-16.1-13.2L10758.8-294008.1z"/>
	<path id="feature_19_1_" class="st9" d="M10759.4-294232l-54.1-31.1l-55.6-22.1l22.5-37.9l9.7-1.8l105.8,38.2l-3.4,8.1
		L10759.4-294232z"/>
</g>
<g id="legend_root" transform="translate(-38,-13)" inkscape:groupmode="layer" inkscape:label="legend_Choro_pop__75-">
	<rect id="under_rect" x="43" y="13.8" class="st23" width="275.5" height="401.6"/>
	<text id="legendtitle" transform="matrix(1 0 0 1 48 30)" class="st24 st25">Paris</text>
	<text id="legendsubtitle" transform="matrix(1 0 0 1 48 45)" class="st26 st25">Population Emprunteurs par Arrondissements</text>
	<g>
		<rect x="48" y="62.4" class="st27" width="18" height="18"/>
		<text transform="matrix(1 0 0 1 76 62.4)" class="st28 st29">1 610</text>
	</g>
	<g>
		<rect x="48" y="80.4" class="st30" width="18" height="18"/>
		<text transform="matrix(1 0 0 1 76 80.4)" class="st28 st29">1 297</text>
	</g>
	<g>
		<rect x="48" y="98.4" class="st31" width="18" height="18"/>
		<text transform="matrix(1 0 0 1 76 98.4)" class="st28 st29">1 218</text>
	</g>
	<g>
		<rect x="48" y="116.4" class="st32" width="18" height="18"/>
		<text transform="matrix(1 0 0 1 76 116.4)" class="st28 st29">1 207</text>
	</g>
	<g>
		<rect x="48" y="134.4" class="st33" width="18" height="18"/>
		<text transform="matrix(1 0 0 1 76 134.4)" class="st28 st29">1 042</text>
	</g>
	<g>
		<rect x="48" y="152.4" class="st34" width="18" height="18"/>
		<text transform="matrix(1 0 0 1 76 152.4)" class="st28 st29">1 038</text>
	</g>
	<g>
		<rect x="48" y="170.4" class="st35" width="18" height="18"/>
		<text transform="matrix(1 0 0 1 76 170.4)" class="st28 st29">1 007</text>
	</g>
	<g>
		<rect x="48" y="188.4" class="st36" width="18" height="18"/>
		<text transform="matrix(1 0 0 1 76 188.4)" class="st28 st29">994</text>
	</g>
	<g>
		<rect x="48" y="206.4" class="st37" width="18" height="18"/>
		<text transform="matrix(1 0 0 1 76 206.4)" class="st28 st29">635</text>
	</g>
	<g>
		<rect x="48" y="224.4" class="st38" width="18" height="18"/>
		<text transform="matrix(1 0 0 1 76 224.4)" class="st28 st29">630</text>
	</g>
	<g>
		<rect x="48" y="242.4" class="st39" width="18" height="18"/>
		<text transform="matrix(1 0 0 1 76 242.4)" class="st28 st29">489</text>
	</g>
	<g>
		<rect x="48" y="260.4" class="st40" width="18" height="18"/>
		<text transform="matrix(1 0 0 1 76 260.4)" class="st28 st29">437</text>
	</g>
	<g>
		<rect x="48" y="278.4" class="st41" width="18" height="18"/>
		<text transform="matrix(1 0 0 1 76 278.4)" class="st28 st29">327</text>
	</g>
	<g>
		<rect x="48" y="296.4" class="st42" width="18" height="18"/>
		<text transform="matrix(1 0 0 1 76 296.4)" class="st28 st29">306</text>
	</g>
	<g>
		<rect x="48" y="314.4" class="st43" width="18" height="18"/>
		<text transform="matrix(1 0 0 1 76 314.4)" class="st28 st29">216</text>
	</g>
	<g>
		<rect x="48" y="332.4" class="st44" width="18" height="18"/>
		<text transform="matrix(1 0 0 1 76 332.4)" class="st28 st29">195</text>
	</g>
	<g>
		<rect x="48" y="350.4" class="st45" width="18" height="18"/>
		<text transform="matrix(1 0 0 1 76 350.4)" class="st28 st29">192</text>
	</g>
	<g>
		<rect x="48" y="368.4" class="st46" width="18" height="18"/>
		<text transform="matrix(1 0 0 1 76 368.4)" class="st28 st29">178</text>
	</g>
	<g>
		<rect x="48" y="386.4" class="st47" width="18" height="18"/>
		<text transform="matrix(1 0 0 1 76 386.4)" class="st28 st29">121</text>
	</g>
	<text id="lgd_choro_min_val" transform="matrix(1 0 0 1 76 404.4)" class="st28 st29">94</text>
</g>
<g id="legend_root_1_" transform="translate(-6,447.0000114440918)" inkscape:groupmode="layer" inkscape:label="legend_Choro_Pop_par_Dept_ile-de-france">
	<rect id="under_rect_1_" x="43" y="28.8" class="st48" width="69" height="98.6"/>
	<text id="legendtitle_1_" transform="matrix(1 0 0 1 48 45)" class="st49 st24 st25">D</text>
	<g>
		<rect x="48" y="62.4" class="st50" width="18" height="18"/>
		<text transform="matrix(1 0 0 1 76 62.4)" class="st49 st28 st29">880</text>
	</g>
	<g>
		<rect x="48" y="80.4" class="st51" width="18" height="18"/>
		<text transform="matrix(1 0 0 1 76 80.4)" class="st49 st28 st29">479</text>
	</g>
	<g>
		<rect x="48" y="98.4" class="st52" width="18" height="18"/>
		<text transform="matrix(1 0 0 1 76 98.4)" class="st49 st28 st29">216</text>
	</g>
	<text id="lgd_choro_min_val_1_" transform="matrix(1 0 0 1 76 116.4)" class="st49 st28 st29">1</text>
</g>
<text transform="matrix(1 0 0 1 434.2199 158.1616)" class="st53 st25">17ème</text>
<text transform="matrix(1 0 0 1 622.8711 125.1616)" class="st53 st25">18ème</text>
<text transform="matrix(1 0 0 1 782.8536 158.2666)" class="st53 st25">19ème</text>
<text transform="matrix(1 0 0 1 672.5717 215.3641)" class="st53 st25">10ème</text>
<text transform="matrix(1 0 0 1 569.9268 216.244)" class="st53 st25">9ème</text>
<text transform="matrix(1 0 0 1 462.9439 243.5751)" class="st53 st25">8ème</text>
<text transform="matrix(1 0 0 1 237.6554 302.3477)" class="st53 st25">16ème</text>
<text transform="matrix(1 0 0 1 460.9046 339.9772)" class="st53 st25">7ème</text>
<text transform="matrix(0.8485 0 0 1 569.9268 302.3477)" class="st53 st25">1er</text>
<text transform="matrix(1 0 0 1 603.7266 272.1621)" class="st53 st25">2ème</text>
<text transform="matrix(1 0 0 1 667.7664 291.9983)" class="st53 st25">3ème</text>
<text transform="matrix(1 0 0 1 659.0912 348.7616)" class="st53 st25">4ème</text>
<text transform="matrix(1 0 0 1 621.9068 399.2229)" class="st53 st25">5ème</text>
<text transform="matrix(1 0 0 1 555.7128 374.8856)" class="st53 st25">6ème</text>
<text transform="matrix(1 0 0 1 749.585 311.9371)" class="st53 st25">11ème</text>
<text transform="matrix(1 0 0 1 851.3203 286.1621)" class="st53 st25">20ème</text>
<text transform="matrix(1 0 0 1 799.6809 419.539)" class="st53 st25">12ème</text>
<text transform="matrix(1 0 0 1 672.6731 493.8855)" class="st53 st25">13ème</text>
<text transform="matrix(1 0 0 1 527.2858 482.1992)" class="st53 st25">14ème</text>
<text transform="matrix(1 0 0 1 377.7431 431.355)" class="st53 st25">15ème</text>
</svg>
